Pymol_coloring
…
ET <- ReadET(ET_file = "b0140.cov") 
b0140.color <- ET %>%
  select(POS, coverage) %>%
  mutate(ET.color = SelectColor(color_type = "ET", prefix = "0x")[ceiling(coverage)])
b0140.color
#> # A tibble: 246 × 3
#>     POS coverage ET.color
#>   <dbl>    <dbl> <chr>   
#> 1     1     44.7 0x00ff1c
#> 2     2     81.6 0x001cff
#> 3     3     92.8 0x6a00ff
#> 4     4     98.5 0xb300ff
#> # … with 242 more rows
…
Extract pLDDT score from pdb file, then assign color.

pLDDT <- GetpLDDT("b0140.pdb", chain = "A")
b0140.color <- b0140.color %>%
  left_join(pLDDT) %>%
  mutate(pLDDT.color = SelectColor(color_type = "alphafold", prefix = "0x")[ceiling(pLDDT)])
#> Joining, by = "POS"
b0140.color
#> # A tibble: 246 × 6
#>     POS coverage ET.color chain pLDDT pLDDT.color
#>   <dbl>    <dbl> <chr>    <chr> <dbl> <chr>      
#> 1     1     44.7 0x00ff1c A      45.3 0xf17c42   
#> 2     2     81.6 0x001cff A      55.4 0xfcdb4b   
#> 3     3     92.8 0x6a00ff A      60.2 0xfcdb4b   
#> 4     4     98.5 0xb300ff A      63.2 0xfcdb4b   
#> # … with 242 more rows
…
